Macron
33 10 73 69 82 12 17 59 58 4 93 35 80 83 62 50 57 37 92 26 32 6 53 20 29 52 85 71 89 77 66 10 38 39 55 21 4 67 65 48 38 29 2 29 19 51 4 3 7 76 18 33 69 31 66 49 79 59 14 42 95 34 86 91 68 18 87 33 41 45 29 60 24 53 20 75 66 18 8 63 83 43 56 91 90 27 88 47 13 39 16 54 15 64 22 29 19 44 70 37 36 61 46 66 29 30 83 9 5 40 94 1 11 18 81 78 25 23 4 28 72 74 29 84

Sobchak
160 114 130 161 135 144 133 125 141 110 27 109 33 12 108 27 111 164 114 154 27 109 166 121 103 100 80 129 139 17 134 152 99 101 109 153 143 155 104 128 137 123 124 134 166 102 121 126 130 112 122 135 144 133 146 29 16 131 158 27 127 147 107 157 112 161 144 150 159 151 156 113 97 104 118 4 148 96 120 134 149 163 29 140 27 115 110 91 95 136 145 165 138 106 132 142 120 4 116 105 98 110 119 162 117

Peskov
208 171 213 207 12 235 217 233 155 204 29 184 57 37 26 9 64 22 217 155 91 226 29 212 236 235 188 215 191 66 54 237 197 235 208 42 174 29 224 215 234 209 29 220 196 190 26 9 64 228 221 66 12 197 176 200 208 29 170 231 171 213 42 210 228 208 12 189 192 83 173 83 229 83 181 203 4 83 223 27 177 198 208 29 184 211 187 206 112 218 29 168 219 227 186 178 19 183 151 195 193 119 179 185 15 57 22 29 52 85 194 225 27 23 204 175 95 208 42 172 30 29 184 42 216 89 29 54 199 30 202 65 230 222 180 96 167 151 205 169 182 232 17 202 201 38 199 214

Abe
270 165 240 30 83 12 141 105 251 23 4 290 243 259 281 257 14 57 29 247 264 286 89 256 262 248 83 265 238 29 253 16 14 187 165 280 284 54 288 148 282 268 260 174 42 267 272 292 241 263 27 250 254 258 24 262 65 29 287 277 255 27 151 273 269 242 251 23 187 266 243 259 83 12 77 262 252 289 279 261 239 155 29 270 27 283 244 30 83 33 9 41 45 17 278 262 18 245 276 30 174 83 12 291 99 42 23 249 275 4 285 274 23 30 83 12 17 24 286 65 246 271

Navalny
118 303 70 155 98 363 151 329 349 322 9 339 309 128 295 340 350 162 304 29 247 29 364 360 212 75 323 354 118 303 70 155 339 128 340 350 359 343 169 287 320 24 323 349 29 360 112 342 315 325 118 353 130 27 128 331 141 346 29 360 324 336 316 311 312 321 263 118 29 365 151 165 296 318 332 294 9 29 336 321 165 296 318 333 118 4 310 308 313 263 300 320 309 128 295 340 77 323 354 345 233 155 323 118 305 344 351 354 9 42 212 299 326 66 83 345 42 124 29 30 118 165 356 311 312 321 334 263 118 57 29 317 333 330 219 347 294 9 29 224 354 307 98 337 301 293 335 120 141 321 340 348 355 327 29 109 33 9 29 328 298 366 140 352 29 110 317 362 306 113 341 302 136 18 361 42 357 297 9 338 4 358 93 35 314 319

Shoygu
12 434 421 83 406 438 192 83 440 403 414 374 183 151 359 141 415 431 384 29 84 162 304 57 89 439 12 370 410 64 400 29 84 418 378 287 415 435 440 403 414 437 151 409 161 432 187 434 421 438 192 83 95 435 75 386 400 29 365 392 83 388 407 184 406 390 370 391 372 375 64 400 429 417 66 415 431 83 367 387 107 398 426 112 430 29 84 304 380 402 435 4 187 434 421 19 438 151 413 65 42 192 83 393 151 419 359 389 77 89 439 12 397 412 9 57 98 425 427 373 27 54 423 411 42 394 423 141 431 27 405 433 4 408 404 29 383 384 359 401 436 83 369 27 11 385 382 416 441 420 422 9 163 336 424 428 431 384 42 396 54 423 371 393 327 29 431 27 368 381 42 138 399 219 376 113 95 379 107 395 4 27 377

Poklonskaya
444 476 469 485 57 66 449 341 451 27 377 381 479 33 483 492 162 304 75 463 453 467 459 39 237 33 377 475 482 487 4 484 446 457 458 4 465 460 464 449 341 55 490 460 25 466 24 444 42 210 443 341 55 451 29 14 381 449 479 37 67 452 38 66 447 454 419 119 477 481 478 480 12 450 27 472 470 119 489 455 17 468 15 76 112 445 341 99 66 451 29 14 456 450 112 29 488 17 472 80 33 278 80 397 492 57 66 12 461 491 377 29 220 486 4 66 212 473 462 471 474 448 442

Yrovaya
496 547 504 526 497 517 532 33 377 546 530 83 515 384 415 507 525 502 520 29 515 12 197 463 515 453 39 515 493 27 515 529 516 444 543 537 523 29 515 522 534 27 515 151 42 515 317 515 210 25 545 508 29 515 494 531 18 515 500 509 495 304 515 513 519 29 515 528 389 514 498 492 540 29 515 503 524 513 527 166 515 510 4 515 42 515 499 25 536 77 497 42 515 479 515 518 505 539 506 521 547 512 377 533 347 348 542 501 535 14 511 515 544 515 541 515 304 515 112 515 538

Kadyrov
105 564 595 594 561 29 515 200 574 151 520 572 29 515 557 506 576 450 515 17 515 95 515 14 206 112 515 562 561 57 529 584 37 548 582 589 18 515 77 66 515 95 576 578 112 515 580 417 594 561 4 515 578 575 317 515 70 27 515 583 453 162 515 304 589 278 66 515 593 581 515 536 557 596 573 48 586 29 515 548 11 515 581 515 559 66 515 83 515 95 23 550 29 515 548 554 592 569 567 299 515 581 515 591 515 471 515 165 29 515 21 4 515 563 515 591 515 282 29 515 557 42 515 317 515 518 27 515 66 515 430 471 515 585 565 552 132 551 558 571 556 586 560 66 515 304 515 577 555 29 515 237 235 587 18 29 515 247 579 568 557 305 200 566 592 588 574 151 520 572 29 515 570 1 549 29 515 200 553 590 561

Trump
29 16 628 29 620 33 235 610 615 57 66 612 506 642 598 14 29 21 604 67 615 31 66 617 599 605 27 616 83 612 132 609 193 33 347 57 66 83 612 29 235 154 644 638 627 608 77 29 645 134 29 33 634 605 165 626 309 619 615 643 42 99 18 242 614 619 597 146 637 111 613 611 641 600 418 453 66 615 639 83 603 621 607 502 81 618 623 631 14 632 586 601 629 29 635 602 187 55 95 586 633 113 618 623 24 33 235 27 208 603 98 630 621 625 42 606 640 113 14 636 624 4 14 622

used cars
663 680 658 693 42 706 655 29 600 716 681 675 378 697 668 29 661 655 658 693 83 710 678 83 687 155 27 511 714 691 474 304 574 341 95 44 703 664 430 666 378 658 715 655 693 83 710 29 716 678 27 684 680 693 419 668 666 586 652 679 29 600 716 688 27 511 714 691 474 304 655 378 658 693 83 687 155 409 708 666 691 700 66 113 341 671 654 660 646 419 676 659 29 694 693 83 710 42 394 665 711 709 27 652 679 29 716 157 27 705 674 655 693 83 710 113 699 29 233 690 678 668 27 717 511 666 691 649 674 670 690 692 647 43 230 42 706 655 673 697 663 680 658 693 42 706 655 29 600 716 681 675 378 697 668 29 661 655 658 693 83 710 678 83 687 155 27 511 714 691 474 304 574 341 95 44 703 664 430 666 378 658 715 713 347 670 690 692 29 702 200 1 682 650 42 706 655 712 693 704 650 713 656 27 666 691 511 666 42 662 716 347 1 702 42 672 655 650 657 651 686 685 667 669 689 707 55 650 698 696 695 29 233 690 683 653 677 684 701 419 648 27 179 650

Kia Rio X-Line
29 43 792 707 802 4 685 757 814 29 287 800 4 729 749 424 553 112 751 821 4 750 165 819 29 771 739 785 818 743 791 774 704 789 685 734 91 304 722 787 66 341 18 745 740 798 726 29 770 17 707 744 76 810 807 282 735 112 741 778 763 811 8 139 11 736 704 725 707 789 83 730 783 731 749 802 112 419 767 719 766 4 737 803 341 801 768 752 784 18 758 777 27 760 511 762 587 782 727 721 820 27 806 4 378 764 723 790 707 802 812 823 793 794 749 29 755 231 811 136 18 29 12 776 4 810 824 112 765 76 731 802 772 769 42 655 29 728 720 27 185 663 67 724 107 754 786 813 4 29 16 808 29 368 165 257 756 732 780 805 780 748 733 29 738 759 816 83 250 775 788 742 250 822 817 795 804 746 796 773 4 742 761 799 341 797 781 749 83 779 4 809 815 341 282 753 718 409 144 341 747 144

Winter Is Coming
43 4 626 23 738 853 27 895 903 541 922 112 923 42 886 937 126 175 874 718 939 873 767 891 841 27 839 17 430 833 878 419 849 896 95 867 616 855 917 856 950 904 474 928 938 4 843 858 839 649 63 877 918 891 932 902 924 4 413 112 845 954 846 4 304 944 578 27 859 828 474 947 834 4 888 219 563 424 136 187 107 418 29 571 880 840 850 827 844 242 926 892 119 854 927 27 909 44 148 112 871 593 112 925 83 881 781 148 127 938 947 933 29 907 840 29 862 233 56 878 413 861 889 900 27 839 76 29 940 165 883 919 575 4 472 434 35 876 29 863 27 872 43 951 834 27 864 841 413 857 933 42 257 250 831 219 35 829 95 56 899 835 43 402 945 4 865 91 18 165 916 29 907 920 869 906 608 175 910 139 27 912 890 257 868 848 119 337 898 27 881 838 593 452 207 55 946 767 434 948 836 837 894 413 441 935 11 27 851 126 165 903 826 941 885 929 950 4 914 949 157 8 578 953 852 908 830 860 157 934 921 933 946 931 126 4 148 127 23 153 175 468 738 148 127 847 876 879 897 893 905 915 936 943 870 904 154 842 578 112 65 471 832 884 952 166 825 887 839 649 930 882 913 567 136 891 76 4 866 317 942 161 250 762 875 112 901 142 468 839 948 4 593 304 125 157 911 27 378

Price increase
27 95 56 419 1020 66 27 988 1004 29 982 9 201 105 311 957 978 27 995 42 984 394 974 960 959 451 29 257 115 29 600 155 978 986 27 983 341 1022 1021 4 1027 27 19 44 1010 11 998 148 661 83 962 162 304 971 89 972 12 1026 979 1000 100 248 323 349 977 12 1007 413 1023 66 1002 1014 975 781 969 997 797 148 997 588 29 955 341 801 1017 978 27 672 956 151 456 112 980 29 169 1016 112 126 165 1003 1013 132 186 654 27 999 219 992 1024 4 27 55 968 1006 1008 986 42 518 1011 27 371 983 978 654 27 958 998 1005 27 983 66 989 1028 27 591 165 194 965 161 567 83 11 993 502 1009 17 930 187 83 472 169 990 29 1015 155 966 127 1022 995 107 970 973 1012 867 29 797 4 987 141 479 976 985 112 963 158 304 189 994 878 42 961 29 212 964 1025 996 797 398 246 991 317 1001 654 967 1019 797 591 165 29 981 18 1018 99 970 867 29 797

MCLAREN 570S
165 23 70 903 1056 1030 1035 1057 83 1050 1052 4 865 323 1040 1039 75 66 1042 418 29 95 155 17 4 29 1060 83 1057 1057 1032 781 1036 1067 1033 66 4 419 626 1031 42 1047 83 1059 29 260 1051 1043 1031 1041 1038 66 18 1048 1063 718 1044 1046 151 1064 511 1061 184 1065 1034 438 1056 1066 175 281 1059 4 1053 165 1037 1054 29 1045 1058 450 66 1038 66 649 83 1050 1033 1062 1029 83 230 511 432 1055 341 1049

DODGE CHALLENGER SRT DEMON
29 1074 529 106 27 1083 1092 1096 1039 1111 163 1095 1072 1086 1106 1069 1042 736 1081 1045 1058 29 1085 1 1107 693 1103 83 230 511 432 1055 647 708 1049 219 1094 1087 1102 708 341 1049 474 304 1110 27 1091 409 432 1055 611 141 1068 95 1101 126 1078 1089 1097 995 1073 1076 880 409 1084 4 99 304 27 649 151 65 1099 141 1100 42 1082 921 1108 1109 1111 1072 1086 1106 299 591 27 1075 1090 16 1105 66 861 148 1098 359 785 718 611 953 304 157 1077 1093 1070 1071 1079 4 1080 773 76 330 136 95 715 1088 179 413 1020 66 926 928 121 1106 654 985 112 81 76 675 835 63 29 829 1104

The Chechen granta
27 1120 1153 1134 1144 1128 1113 1131 971 98 591 66 413 29 1146 95 155 1143 920 1123 693 1133 1151 219 1015 217 27 743 1139 1133 1152 1135 1123 693 29 1136 1140 743 1148 920 29 716 155 1115 1143 926 800 1145 219 29 155 1137 27 1127 1122 76 341 55 70 27 1153 785 1147 144 693 29 155 353 130 1119 144 831 158 1141 1138 29 155 743 1130 4 246 784 233 155 903 165 130 1119 1149 1116 1125 4 1131 1132 570 1144 601 1121 743 4 578 1118 18 27 1112 785 29 95 155 39 1117 959 1129 668 1147 144 693 250 144 1149 4 1124 1151 158 460 1150 1141 1151 784 1154 1134 165 819 27 1126 29 699 219 83 1114 1142 785 743 107 986 511 144 831 29 155

MCLAREN 720S
1177 378 649 151 1155 27 864 1056 1057 165 163 1040 1039 27 1171 29 1184 1056 1057 17 4 1105 781 1160 113 1175 1161 474 304 718 1186 341 1189 1143 1165 1044 1046 1188 76 18 706 165 777 83 511 1022 29 336 785 1159 511 1061 184 219 1073 1076 880 1172 1185 304 413 1156 132 1176 1183 1166 378 1167 1158 1173 4 1170 1157 148 127 1012 1031 419 1180 1174 66 861 1098 359 1179 718 1103 166 511 432 1055 1116 647 1049 219 1073 1110 1181 432 1055 1163 304 1169 107 1178 1174 179 1031 300 1162 1168 780 351 732 4 367 1182 655 1042 123 29 829 217 654 29 1187 409 166 144 1172 1164

LAMBORGHINI HURACAN PERFORMANTE
1039 1167 1158 781 378 1035 1173 151 149 445 1169 1208 1213 1210 1221 1206 1205 1169 1199 27 1212 1096 18 359 1201 1063 1214 718 1188 76 83 96 1191 861 1203 18 1198 83 1198 83 4 1084 1172 1185 1076 880 1158 1173 585 240 83 230 1110 29 432 1055 708 341 1049 474 304 1073 1110 204 27 867 432 1055 1167 1195 1197 1202 1219 83 1216 846 4 1215 1194 859 1174 693 347 165 1204 780 351 748 1200 4 1192 179 148 127 1211 693 419 1196 1217 1190 151 1220 1166 675 1167 1158 1173 920 95 1104 66 189 654 591 80 409 1218 29 1193 929 1207 1209

Alpine A110
1234 1246 1236 1199 27 1096 29 1184 299 1245 1062 1243 378 811 1230 1241 4 1231 1244 1228 1224 55 1226 378 1236 1238 27 1177 1252 1239 151 1242 1251 1225 76 4 845 928 1174 151 409 708 1249 341 1227 225 1063 718 83 1233 151 1064 1198 83 4 1172 1185 1084 1076 880 1103 83 230 511 432 1055 647 1049 219 1073 1110 1235 1229 27 867 432 1055 718 877 29 1247 83 1197 1202 1219 1232 1237 141 1236 1246 347 207 1250 27 1168 835 127 113 918 1043 29 1222 1240 693 1246 1236 1223 27 663 29 829 95 155 396 98 654 165 1248 441

